{
	"info": {
		"_postman_id": "738322b9-6736-4a5c-96bd-6df1d58369a2",
		"name": "CursoPractitionerBackEnd V2",
		"schema": "https://schema.getpostman.com/json/collection/v2.1.0/collection.json"
	},
	"item": [
		{
			"name": "Products",
			"item": [
				{
					"name": "Products",
					"request": {
						"method": "GET",
						"header": [],
						"url": {
							"raw": "http://localhost:8080/apitechu/v2/products",
							"protocol": "http",
							"host": [
								"localhost"
							],
							"port": "8080",
							"path": [
								"apitechu",
								"v2",
								"products"
							]
						}
					},
					"response": []
				},
				{
					"name": "ProductById",
					"request": {
						"method": "GET",
						"header": [],
						"url": {
							"raw": "http://localhost:8080/apitechu/v2/products/:id",
							"protocol": "http",
							"host": [
								"localhost"
							],
							"port": "8080",
							"path": [
								"apitechu",
								"v2",
								"products",
								":id"
							],
							"variable": [
								{
									"key": "id",
									"value": "1"
								}
							]
						}
					},
					"response": []
				},
				{
					"name": "Products",
					"protocolProfileBehavior": {
						"disabledSystemHeaders": {}
					},
					"request": {
						"method": "POST",
						"header": [],
						"body": {
							"mode": "raw",
							"raw": "{\r\n    \"id\": 1,\r\n    \"desc\": \"Product 1\",\r\n    \"price\": 10\r\n}",
							"options": {
								"raw": {
									"language": "json"
								}
							}
						},
						"url": {
							"raw": "http://localhost:8080/apitechu/v2/products",
							"protocol": "http",
							"host": [
								"localhost"
							],
							"port": "8080",
							"path": [
								"apitechu",
								"v2",
								"products"
							]
						}
					},
					"response": []
				},
				{
					"name": "ProductById",
					"request": {
						"method": "PUT",
						"header": [],
						"body": {
							"mode": "raw",
							"raw": "{\r\n    \"id\": 15,\r\n    \"desc\": \"Product 15\",\r\n    \"price\": 150\r\n}",
							"options": {
								"raw": {
									"language": "json"
								}
							}
						},
						"url": {
							"raw": "http://localhost:8080/apitechu/v2/products/:id",
							"protocol": "http",
							"host": [
								"localhost"
							],
							"port": "8080",
							"path": [
								"apitechu",
								"v2",
								"products",
								":id"
							],
							"variable": [
								{
									"key": "id",
									"value": "2"
								}
							]
						}
					},
					"response": []
				},
				{
					"name": "ProductById",
					"request": {
						"method": "DELETE",
						"header": [],
						"url": {
							"raw": "http://localhost:8080/apitechu/v2/products/:id",
							"protocol": "http",
							"host": [
								"localhost"
							],
							"port": "8080",
							"path": [
								"apitechu",
								"v2",
								"products",
								":id"
							],
							"variable": [
								{
									"key": "id",
									"value": "1"
								}
							]
						}
					},
					"response": []
				}
			]
		},
		{
			"name": "Users",
			"item": [
				{
					"name": "Users",
					"request": {
						"method": "GET",
						"header": [],
						"url": {
							"raw": "http://localhost:8080/apitechu/v2/users?$orderby=age",
							"protocol": "http",
							"host": [
								"localhost"
							],
							"port": "8080",
							"path": [
								"apitechu",
								"v2",
								"users"
							],
							"query": [
								{
									"key": "$orderby",
									"value": "age"
								}
							]
						}
					},
					"response": []
				},
				{
					"name": "UserById",
					"request": {
						"method": "GET",
						"header": [],
						"url": {
							"raw": "http://localhost:8080/apitechu/v2/users/:id",
							"protocol": "http",
							"host": [
								"localhost"
							],
							"port": "8080",
							"path": [
								"apitechu",
								"v2",
								"users",
								":id"
							],
							"variable": [
								{
									"key": "id",
									"value": "2"
								}
							]
						}
					},
					"response": []
				},
				{
					"name": "Users",
					"protocolProfileBehavior": {
						"disabledSystemHeaders": {}
					},
					"request": {
						"method": "POST",
						"header": [],
						"body": {
							"mode": "raw",
							"raw": "{\r\n    \"id\": 1,\r\n    \"name\": \"Usuario 1\",\r\n    \"age\": 10\r\n}",
							"options": {
								"raw": {
									"language": "json"
								}
							}
						},
						"url": {
							"raw": "http://localhost:8080/apitechu/v2/users",
							"protocol": "http",
							"host": [
								"localhost"
							],
							"port": "8080",
							"path": [
								"apitechu",
								"v2",
								"users"
							]
						}
					},
					"response": []
				},
				{
					"name": "UserById",
					"request": {
						"method": "PUT",
						"header": [],
						"body": {
							"mode": "raw",
							"raw": "{\r\n    \"id\": 3,\r\n    \"name\": \"Usuario 2 NEWW\",\r\n    \"age\": 22\r\n}",
							"options": {
								"raw": {
									"language": "json"
								}
							}
						},
						"url": {
							"raw": "http://localhost:8080/apitechu/v2/users/:id",
							"protocol": "http",
							"host": [
								"localhost"
							],
							"port": "8080",
							"path": [
								"apitechu",
								"v2",
								"users",
								":id"
							],
							"variable": [
								{
									"key": "id",
									"value": "15"
								}
							]
						}
					},
					"response": []
				},
				{
					"name": "UserById",
					"request": {
						"method": "DELETE",
						"header": [],
						"url": {
							"raw": "http://localhost:8080/apitechu/v2/users/:id",
							"protocol": "http",
							"host": [
								"localhost"
							],
							"port": "8080",
							"path": [
								"apitechu",
								"v2",
								"users",
								":id"
							],
							"variable": [
								{
									"key": "id",
									"value": "15"
								}
							]
						}
					},
					"response": []
				}
			]
		},
		{
			"name": "Purchases",
			"item": [
				{
					"name": "Purchases",
					"request": {
						"method": "GET",
						"header": [],
						"url": {
							"raw": "http://localhost:8080/apitechu/v2/purchases",
							"protocol": "http",
							"host": [
								"localhost"
							],
							"port": "8080",
							"path": [
								"apitechu",
								"v2",
								"purchases"
							]
						}
					},
					"response": []
				},
				{
					"name": "Purchases",
					"protocolProfileBehavior": {
						"disabledSystemHeaders": {}
					},
					"request": {
						"method": "POST",
						"header": [],
						"body": {
							"mode": "raw",
							"raw": "{\r\n    \"id\": 4,\r\n    \"userId\": \"1\",\r\n    \"amount\": 10,\r\n    \"purchaseItems\" : {\"1\": 0, \"2\": 1}\r\n}",
							"options": {
								"raw": {
									"language": "json"
								}
							}
						},
						"url": {
							"raw": "http://localhost:8080/apitechu/v2/purchases",
							"protocol": "http",
							"host": [
								"localhost"
							],
							"port": "8080",
							"path": [
								"apitechu",
								"v2",
								"purchases"
							]
						}
					},
					"response": []
				},
				{
					"name": "PurchaseById",
					"request": {
						"method": "DELETE",
						"header": [],
						"url": {
							"raw": "http://localhost:8080/apitechu/v2/purchases/:id",
							"protocol": "http",
							"host": [
								"localhost"
							],
							"port": "8080",
							"path": [
								"apitechu",
								"v2",
								"purchases",
								":id"
							],
							"variable": [
								{
									"key": "id",
									"value": "1"
								}
							]
						}
					},
					"response": []
				}
			]
		},
		{
			"name": "Hello",
			"request": {
				"method": "GET",
				"header": [],
				"url": {
					"raw": "http://localhost:8080/hello?name=Salva",
					"protocol": "http",
					"host": [
						"localhost"
					],
					"port": "8080",
					"path": [
						"hello"
					],
					"query": [
						{
							"key": "name",
							"value": "Salva"
						}
					]
				}
			},
			"response": []
		}
	]
}